…
- region:

  Filter by region: "North", "South", "East", "West", "Central",
  "Northeast", "Islands".

## Value

A tibble of states with codes, names, abbreviations, and regions.

## Examples

``` r
list_states()
#> # A tibble: 36 × 5
#>    state_code state_name        state_abbr region state_name_harmonized
#>         <int> <chr>             <chr>      <chr>  <chr>                
#>  1          1 Jammu and Kashmir JK         North  Jammu & Kashmir      
#>  2          2 Himachal Pradesh  HP         North  Himachal Pradesh     
#>  3          3 Punjab            PB         North  Punjab               
#>  4          4 Chandigarh        CH         North  Chandigarh           
#>  5          5 Uttarakhand       UK         North  Uttarakhand          
#>  6          6 Haryana           HR         North  Haryana              
#>  7          7 Delhi             DL         North  Delhi                
#>  8          8 Rajasthan         RJ         North  Rajasthan            
#>  9          9 Uttar Pradesh     UP         North  Uttar Pradesh        
#> 10         10 Bihar             BR         East   Bihar                
#> # ℹ 26 more rows
…
